{
  "ID": "8fb5d223-d567-42fc-b039-e0de5db2b2e8",
  "Version": "3.10.0.0",
  "Name": "StoreLayer",
  "Content": {
    "Content": {
      "Animation": {
        "Duration": 0,
        "Speed": 1.0,
        "Timelines": [],
        "ctype": "TimelineActionData"
      },
      "AnimationList": [],
      "ObjectData": {
        "UserData": "StoreLayer Panel",
        "Tag": 39,
        "Children": [
          {
            "ClipAble": false,
            "BackColorAlpha": 102,
            "ComboBoxIndex": 1,
            "SingleColor": {
              "R": 150,
              "G": 200
            },
            "FirstColor": {
              "R": 150,
              "G": 200
            },
            "EndColor": {},
            "ColorVector": {
              "ScaleY": 1.0
            },
            "Scale9Width": 1,
            "Scale9Height": 1,
            "TouchEnable": true,
            "AnchorPoint": {},
            "Position": {
              "X": 0.0,
              "Y": 0.0
            },
            "Scale": {
              "ScaleX": 9.6338,
              "ScaleY": 5.4353
            },
            "CColor": {},
            "IconVisible": false,
            "PrePosition": {
              "X": 0.0,
              "Y": 0.0
            },
            "PreSize": {
              "X": 0.1042,
              "Y": 0.1852
            },
            "RightMargin": 1720.0,
            "TopMargin": 880.0,
            "UserData": "Panel_2 in store layer",
            "Tag": 44,
            "Children": [
              {
                "InnerNodeSize": {
                  "Width": 200,
                  "Height": 300
                },
                "ScrollDirectionType": "Vertical",
                "ClipAble": false,
                "BackColorAlpha": 102,
                "ComboBoxIndex": 1,
                "SingleColor": {
                  "G": 150,
                  "B": 100
                },
                "FirstColor": {
                  "G": 150,
                  "B": 100
                },
                "EndColor": {},
                "ColorVector": {
                  "ScaleY": 1.0
                },
                "Scale9Width": 1,
                "Scale9Height": 1,
                "TouchEnable": true,
                "AnchorPoint": {},
                "Position": {
                  "X": 37.4246,
                  "Y": -283.1583
                },
                "Scale": {
                  "ScaleX": 0.6886,
                  "ScaleY": 2.3983
                },
                "CColor": {},
                "IconVisible": false,
                "PrePosition": {
                  "X": 0.1871,
                  "Y": -1.4158
                },
                "PreSize": {
                  "X": 1.0,
                  "Y": 1.0
                },
                "LeftMargin": 37.4246,
                "RightMargin": -37.4246,
                "TopMargin": 283.1583,
                "BottomMargin": -283.1583,
                "UserData": "ScrollView_1 ----Hacked",
                "Tag": 45,
                "Children": [
                  {
                    "ClipAble": false,
                    "BackColorAlpha": 102,
                    "ComboBoxIndex": 1,
                    "SingleColor": {
                      "R": 150,
                      "G": 200
                    },
                    "FirstColor": {
                      "R": 150,
                      "G": 200
                    },
                    "EndColor": {},
                    "ColorVector": {
                      "ScaleY": 1.0
                    },
                    "Scale9Width": 1,
                    "Scale9Height": 1,
                    "TouchEnable": true,
                    "AnchorPoint": {},
                    "Position": {
                      "X": 2.6653,
                      "Y": 67.2334
                    },
                    "Scale": {
                      "ScaleX": 1.0,
                      "ScaleY": 1.1626
                    },
                    "CColor": {},
                    "IconVisible": false,
                    "PrePosition": {
                      "X": 0.0133,
                      "Y": 0.2241
                    },
                    "PreSize": {
                      "X": 1.0,
                      "Y": 0.6667
                    },
                    "LeftMargin": 2.6653,
                    "RightMargin": -2.6653,
                    "TopMargin": 32.7666,
                    "BottomMargin": 67.2334,
                    "UserData": "Panel_1 --Hacked",
                    "Tag": 48,
                    "Children": [
                      {
                        "FileData": {
                          "Type": "Normal",
                          "Path": "store-board.png",
                          "Plist": ""
                        },
                        "BlendFunc": {
                          "Src": 770,
                          "Dst": 771
                        },
                        "AnchorPoint": {
                          "ScaleX": 0.5,
                          "ScaleY": 0.5
                        },
                        "Position": {
                          "X": 99.5429,
                          "Y": 126.6251
                        },
                        "Scale": {
                          "ScaleX": 0.3373,
                          "ScaleY": 0.1926
                        },
                        "CColor": {},
                        "IconVisible": false,
                        "PrePosition": {
                          "X": 0.4977,
                          "Y": 0.6331
                        },
                        "PreSize": {
                          "X": 2.94,
                          "Y": 3.825
                        },
                        "LeftMargin": -194.4571,
                        "RightMargin": -193.5429,
                        "TopMargin": -309.1251,
                        "BottomMargin": -255.8749,
                        "UserData": "storeboard.png",
                        "Tag": 43,
                        "ActionTag": 954351264,
                        "Size": {
                          "X": 588.0,
                          "Y": 765.0
                        },
                        "Name": "Store_Board",
                        "ctype": "SpriteObjectData"
                      },
                      {
                        "FontSize": 14,
                        "ButtonText": "",
                        "TextColor": {
                          "R": 65,
                          "G": 65,
                          "B": 70
                        },
                        "NormalFileData": {
                          "Type": "Normal",
                          "Path": "buy-50.png",
                          "Plist": ""
                        },
                        "Scale9Enable": true,
                        "Scale9OriginX": 15,
                        "Scale9OriginY": 11,
                        "Scale9Width": 100,
                        "Scale9Height": 22,
                        "OutlineColor": {
                          "G": 0,
                          "B": 0
                        },
                        "ShadowColor": {
                          "R": 110,
                          "G": 110,
                          "B": 110
                        },
                        "ShadowOffsetX": 2.0,
                        "ShadowOffsetY": -2.0,
                        "TouchEnable": true,
                        "AnchorPoint": {
                          "ScaleX": 0.5,
                          "ScaleY": 0.5
                        },
                        "Position": {
                          "X": 145.0579,
                          "Y": 149.9152
                        },
                        "Scale": {
                          "ScaleX": 0.3583,
                          "ScaleY": 0.2099
                        },
                        "CColor": {},
                        "IconVisible": false,
                        "PrePosition": {
                          "X": 0.7253,
                          "Y": 0.7496
                        },
                        "PreSize": {
                          "X": 0.65,
                          "Y": 0.22
                        },
                        "LeftMargin": 80.0579,
                        "RightMargin": -10.0579,
                        "TopMargin": 28.0848,
                        "BottomMargin": 127.9152,
                        "Tag": 49,
                        "ActionTag": 1141920607,
                        "Size": {
                          "X": 130.0,
                          "Y": 44.0
                        },
                        "Name": "btn_buymagnet",
                        "ctype": "ButtonObjectData"
                      },
                      {
                        "FontSize": 14,
                        "ButtonText": "",
                        "TextColor": {
                          "R": 65,
                          "G": 65,
                          "B": 70
                        },
                        "NormalFileData": {
                          "Type": "Normal",
                          "Path": "buy-50.png",
                          "Plist": ""
                        },
                        "Scale9Enable": true,
                        "Scale9OriginX": 15,
                        "Scale9OriginY": 11,
                        "Scale9Width": 100,
                        "Scale9Height": 22,
                        "OutlineColor": {
                          "G": 0,
                          "B": 0
                        },
                        "ShadowColor": {
                          "R": 110,
                          "G": 110,
                          "B": 110
                        },
                        "ShadowOffsetX": 2.0,
                        "ShadowOffsetY": -2.0,
                        "TouchEnable": true,
                        "AnchorPoint": {
                          "ScaleX": 0.5,
                          "ScaleY": 0.5
                        },
                        "Position": {
                          "X": 144.5956,
                          "Y": 123.3002
                        },
                        "Scale": {
                          "ScaleX": 0.3583,
                          "ScaleY": 0.2099
                        },
                        "CColor": {},
                        "IconVisible": false,
                        "PrePosition": {
                          "X": 0.723,
                          "Y": 0.6165
                        },
                        "PreSize": {
                          "X": 0.65,
                          "Y": 0.22
                        },
                        "LeftMargin": 79.5956,
                        "RightMargin": -9.5956,
                        "TopMargin": 54.6998,
                        "BottomMargin": 101.3002,
                        "UserData": "btn_buyshoes_purple",
                        "Tag": 66,
                        "ActionTag": -791467478,
                        "Size": {
                          "X": 130.0,
                          "Y": 44.0
                        },
                        "Name": "btn_buyshoes",
                        "ctype": "ButtonObjectData"
                      },
                      {
                        "FontSize": 14,
                        "ButtonText": "",
                        "TextColor": {
                          "R": 65,
                          "G": 65,
                          "B": 70
                        },
                        "NormalFileData": {
                          "Type": "Normal",
                          "Path": "buy-50.png",
                          "Plist": ""
                        },
                        "Scale9Enable": true,
                        "Scale9OriginX": 15,
                        "Scale9OriginY": 11,
                        "Scale9Width": 100,
                        "Scale9Height": 22,
                        "OutlineColor": {
                          "G": 0,
                          "B": 0
                        },
                        "ShadowColor": {
                          "R": 110,
                          "G": 110,
                          "B": 110
                        },
                        "ShadowOffsetX": 2.0,
                        "ShadowOffsetY": -2.0,
                        "TouchEnable": true,
                        "AnchorPoint": {
                          "ScaleX": 0.5,
                          "ScaleY": 0.5
                        },
                        "Position": {
                          "X": 145.722,
                          "Y": 97.0748
                        },
                        "Scale": {
                          "ScaleX": 0.3583,
                          "ScaleY": 0.2099
                        },
                        "CColor": {},
                        "IconVisible": false,
                        "PrePosition": {
                          "X": 0.7286,
                          "Y": 0.4854
                        },
                        "PreSize": {
                          "X": 0.65,
                          "Y": 0.22
                        },
                        "LeftMargin": 80.722,
                        "RightMargin": -10.722,
                        "TopMargin": 80.9252,
                        "BottomMargin": 75.0748,
                        "UserData": "btn_buyredshoes",
                        "Tag": 67,
                        "ActionTag": -338622401,
                        "Size": {
                          "X": 130.0,
                          "Y": 44.0
                        },
                        "Name": "btn_buyredshoes",
                        "ctype": "ButtonObjectData"
                      },
                      {
                        "FontSize": 14,
                        "LabelText": "0\n",
                        "HorizontalAlignmentType": "HT_Center",
                        "VerticalAlignmentType": "VT_Center",
                        "OutlineColor": {
                          "G": 0,
                          "B": 0
                        },
                        "ShadowColor": {
                          "R": 110,
                          "G": 110,
                          "B": 110
                        },
                        "ShadowOffsetX": 2.0,
                        "ShadowOffsetY": -2.0,
                        "AnchorPoint": {
                          "ScaleX": 0.5,
                          "ScaleY": 0.5
                        },
                        "Position": {
                          "X": 56.8091,
                          "Y": 67.9494
                        },
                        "Scale": {
                          "ScaleX": 2.4655,
                          "ScaleY": 0.3472
                        },
                        "CColor": {
                          "R": 0,
                          "G": 0,
                          "B": 0
                        },
                        "IconVisible": false,
                        "PrePosition": {
                          "X": 0.284,
                          "Y": 0.3397
                        },
                        "PreSize": {
                          "X": 0.04,
                          "Y": 0.16
                        },
                        "LeftMargin": 52.8091,
                        "RightMargin": 139.1909,
                        "TopMargin": 116.0506,
                        "BottomMargin": 51.9494,
                        "CallBackType": "Touch",
                        "UserData": "txt_magnet",
                        "Tag": 70,
                        "ActionTag": 1625825666,
                        "Size": {
                          "X": 8.0,
                          "Y": 32.0
                        },
                        "Name": "txt_magnet",
                        "ctype": "TextObjectData"
                      },
                      {
                        "FontSize": 14,
                        "LabelText": "0\n",
                        "HorizontalAlignmentType": "HT_Center",
                        "VerticalAlignmentType": "VT_Center",
                        "OutlineColor": {
                          "G": 0,
                          "B": 0
                        },
                        "ShadowColor": {
                          "R": 110,
                          "G": 110,
                          "B": 110
                        },
                        "ShadowOffsetX": 2.0,
                        "ShadowOffsetY": -2.0,
                        "AnchorPoint": {
                          "ScaleX": 0.5904,
                          "ScaleY": 0.333
                        },
                        "Position": {
                          "X": 112.6503,
                          "Y": 66.7773
                        },
                        "Scale": {
                          "ScaleX": 2.3069,
                          "ScaleY": 0.3079
                        },
                        "CColor": {
                          "R": 0,
                          "G": 0,
                          "B": 0
                        },
                        "IconVisible": false,
                        "PrePosition": {
                          "X": 0.5633,
                          "Y": 0.3339
                        },
                        "PreSize": {
                          "X": 0.04,
                          "Y": 0.16
                        },
                        "LeftMargin": 107.9271,
                        "RightMargin": 84.0729,
                        "TopMargin": 111.8787,
                        "BottomMargin": 56.1213,
                        "CallBackType": "Touch",
                        "UserData": "txt_purpleshoes",
                        "Tag": 73,
                        "FrameEvent": "btn_buyshoesEvent",
                        "ActionTag": 1412499347,
                        "Size": {
                          "X": 8.0,
                          "Y": 32.0
                        },
                        "Name": "txt_shoes",
                        "ctype": "TextObjectData"
                      },
                      {
                        "FontSize": 14,
                        "LabelText": "0\n",
                        "HorizontalAlignmentType": "HT_Center",
                        "VerticalAlignmentType": "VT_Center",
                        "OutlineColor": {
                          "G": 0,
                          "B": 0
                        },
                        "ShadowColor": {
                          "R": 110,
                          "G": 110,
                          "B": 110
                        },
                        "ShadowOffsetX": 2.0,
                        "ShadowOffsetY": -2.0,
                        "AnchorPoint": {
                          "ScaleX": 0.4116,
                          "ScaleY": 0.2751
                        },
                        "Position": {
                          "X": 157.2951,
                          "Y": 66.0942
                        },
                        "Scale": {
                          "ScaleX": 2.1154,
                          "ScaleY": 0.3079
                        },
                        "CColor": {
                          "R": 0,
                          "G": 0,
                          "B": 0
                        },
                        "IconVisible": false,
                        "PrePosition": {
                          "X": 0.7865,
                          "Y": 0.3305
                        },
                        "PreSize": {
                          "X": 0.04,
                          "Y": 0.16
                        },
                        "LeftMargin": 154.0023,
                        "RightMargin": 37.9977,
                        "TopMargin": 110.709,
                        "BottomMargin": 57.291,
                        "CallBackType": "Touch",
                        "UserData": "txt_redshoes",
                        "Tag": 74,
                        "ActionTag": 1907287392,
                        "Size": {
                          "X": 8.0,
                          "Y": 32.0
                        },
                        "Name": "txt_redshoes",
                        "ctype": "TextObjectData"
                      },
                      {
                        "FontSize": 10,
                        "LabelText": "Hello World\n\n\n",
                        "OutlineColor": {
                          "G": 0,
                          "B": 0
                        },
                        "ShadowColor": {
                          "R": 110,
                          "G": 110,
                          "B": 110
                        },
                        "ShadowOffsetX": 2.0,
                        "ShadowOffsetY": -2.0,
                        "AnchorPoint": {
                          "ScaleX": 0.5064,
                          "ScaleY": 0.6139
                        },
                        "Position": {
                          "X": 128.8781,
                          "Y": 166.785
                        },
                        "Scale": {
                          "ScaleX": 0.6792,
                          "ScaleY": 0.2193
                        },
                        "CColor": {
                          "R": 0,
                          "G": 0,
                          "B": 0
                        },
                        "IconVisible": false,
                        "PrePosition": {
                          "X": 0.6444,
                          "Y": 0.8339
                        },
                        "PreSize": {
                          "X": 0.275,
                          "Y": 0.26
                        },
                        "LeftMargin": 101.0261,
                        "RightMargin": 43.9739,
                        "TopMargin": 13.1378,
                        "BottomMargin": 134.8622,
                        "CallBackType": "Touch",
                        "UserData": "txt_coinsEvent",
                        "Tag": 111,
                        "ActionTag": 1255587959,
                        "Size": {
                          "X": 55.0,
                          "Y": 52.0
                        },
                        "Name": "txt_coins",
                        "ctype": "TextObjectData"
                      }
                    ],
                    "ActionTag": -1163324240,
                    "Size": {
                      "X": 200.0,
                      "Y": 200.0
                    },
                    "Name": "Panel_1",
                    "ctype": "PanelObjectData"
                  }
                ],
                "ActionTag": 754346157,
                "Size": {
                  "X": 200.0,
                  "Y": 200.0
                },
                "Name": "ScrollView_1",
                "ctype": "ScrollViewObjectData"
              }
            ],
            "ActionTag": 162117614,
            "Size": {
              "X": 200.0,
              "Y": 200.0
            },
            "Name": "Panel_2",
            "ctype": "PanelObjectData"
          },
          {
            "FontSize": 14,
            "ButtonText": "",
            "TextColor": {
              "R": 65,
              "G": 65,
              "B": 70
            },
            "NormalFileData": {
              "Type": "Normal",
              "Path": "btn/button_artbord-03.png",
              "Plist": ""
            },
            "Scale9Enable": true,
            "Scale9OriginX": 15,
            "Scale9OriginY": 11,
            "Scale9Width": 93,
            "Scale9Height": 101,
            "OutlineColor": {
              "G": 0,
              "B": 0
            },
            "ShadowColor": {
              "R": 110,
              "G": 110,
              "B": 110
            },
            "ShadowOffsetX": 2.0,
            "ShadowOffsetY": -2.0,
            "TouchEnable": true,
            "AnchorPoint": {
              "ScaleX": 0.5,
              "ScaleY": 0.5
            },
            "Position": {
              "X": 126.9976,
              "Y": 70.6193
            },
            "Scale": {
              "ScaleX": 1.1887,
              "ScaleY": 0.9277
            },
            "CColor": {},
            "IconVisible": false,
            "PrePosition": {
              "X": 0.0661,
              "Y": 0.0654
            },
            "PreSize": {
              "X": 0.0641,
              "Y": 0.1139
            },
            "LeftMargin": 65.4976,
            "RightMargin": 1731.5024,
            "TopMargin": 947.8807,
            "BottomMargin": 9.1193,
            "UserData": "btn_back",
            "Tag": 50,
            "ActionTag": 2138858367,
            "Size": {
              "X": 123.0,
              "Y": 123.0
            },
            "Name": "btn_back",
            "ctype": "ButtonObjectData"
          }
        ],
        "Size": {
          "X": 1920.0,
          "Y": 1080.0
        },
        "Name": "Layer",
        "ctype": "LayerObjectData"
      },
      "UsedResources": [
        "btn/button_artbord-03.png",
        "buy-50.png",
        "store-board.png"
      ],
      "ctype": "GameFileData"
    }
  },
  "Type": "Layer"
}