{
  "ID": "45748fba-a0db-4210-8867-3bd96e496835",
  "Version": "3.10.0.0",
  "Name": "Settings",
  "Content": {
    "Content": {
      "Animation": {
        "Duration": 0,
        "Speed": 1.0,
        "Timelines": [],
        "ctype": "TimelineActionData"
      },
      "AnimationList": [],
      "ObjectData": {
        "Tag": 10,
        "Children": [
          {
            "FontSize": 20,
            "LabelText": "Settings",
            "OutlineColor": {
              "G": 0,
              "B": 0
            },
            "ShadowColor": {
              "R": 110,
              "G": 110,
              "B": 110
            },
            "ShadowOffsetX": 2.0,
            "ShadowOffsetY": -2.0,
            "AnchorPoint": {
              "ScaleX": 0.433,
              "ScaleY": 1.0
            },
            "Position": {
              "X": 859.9961,
              "Y": 829.8622
            },
            "Scale": {
              "ScaleX": 23.1284,
              "ScaleY": 23.4713
            },
            "CColor": {
              "G": 0,
              "B": 0
            },
            "IconVisible": false,
            "PrePosition": {
              "X": 0.4479,
              "Y": 0.7684
            },
            "PreSize": {
              "X": 0.037,
              "Y": 0.0213
            },
            "LeftMargin": 829.2519,
            "RightMargin": 1019.7481,
            "TopMargin": 250.1378,
            "BottomMargin": 806.8622,
            "Tag": 18,
            "ActionTag": -416047098,
            "Size": {
              "X": 71.0,
              "Y": 23.0
            },
            "Alpha": 217,
            "Name": "Text_1",
            "ctype": "TextObjectData"
          },
          {
            "CheckedState": true,
            "NormalBackFileData": {
              "Type": "Default",
              "Path": "Default/CheckBox_Normal.png",
              "Plist": ""
            },
            "NodeNormalFileData": {
              "Type": "Default",
              "Path": "Default/CheckBoxNode_Normal.png",
              "Plist": ""
            },
            "TouchEnable": true,
            "AnchorPoint": {
              "ScaleX": 0.3992,
              "ScaleY": -3.0438
            },
            "Position": {
              "X": 903.533,
              "Y": -628.6005
            },
            "Scale": {
              "ScaleX": 14.5334,
              "ScaleY": 4.2441
            },
            "CColor": {},
            "IconVisible": false,
            "PrePosition": {
              "X": 0.4706,
              "Y": -0.582
            },
            "PreSize": {
              "X": 0.0208,
              "Y": 0.037
            },
            "LeftMargin": 887.563,
            "RightMargin": 992.437,
            "TopMargin": 1546.8472,
            "BottomMargin": -506.8472,
            "Tag": 43,
            "ActionTag": 517515776,
            "Size": {
              "X": 40.0,
              "Y": 40.0
            },
            "Name": "CheckBox_1",
            "ctype": "CheckBoxObjectData"
          }
        ],
        "Size": {
          "X": 1920.0,
          "Y": 1080.0
        },
        "Name": "Layer",
        "ctype": "LayerObjectData"
      },
      "UsedResources": [
        "Default/CheckBox_Normal.png",
        "Default/CheckBoxNode_Normal.png"
      ],
      "ctype": "GameFileData"
    }
  },
  "Type": "Layer"
}